^C:\USERS\JOSHW\SCHOOL\ALL_C\C,C++\S3\PRACTICE\C++QUEUE_IMPLEMENTATION\C++QUEUE_IMPLEMENTATION\UT_QUEUE_MAIN.CPP
C:\USERS\JOSHW\SCHOOL\ALL_C\C,C++\S3\PRACTICE\C++QUEUE_IMPLEMENTATION\C++QUEUE_IMPLEMENTATION\DEBUG\VC140.PDB
C:\USERS\JOSHW\SCHOOL\ALL_C\C,C++\S3\PRACTICE\C++QUEUE_IMPLEMENTATION\C++QUEUE_IMPLEMENTATION\DEBUG\VC140.IDB
C:\USERS\JOSHW\SCHOOL\ALL_C\C,C++\S3\PRACTICE\C++QUEUE_IMPLEMENTATION\C++QUEUE_IMPLEMENTATION\DEBUG\UT_QUEUE_MAIN.OBJ
